…
lm_spec <-
  linear_reg() %>%
  set_engine("lm")
vs_fit_1      <- fit(lm_spec, 
                   mpg ~ horsepower, 
                   data = Auto_train)
mpg_pred_1 <- vs_fit_1 %>% 
  predict(new_data = Auto) %>% 
  bind_cols(Auto)
mpg_pred_1

## # A tibble: 392 × 10
##    .pred   mpg cylinders displacement horsepower weight acceleration  year
##  * <dbl> <dbl>     <dbl>        <dbl>      <dbl>  <dbl>        <dbl> <dbl>
##  1 19.3     18         8          307        130   3504         12      70
##  2 13.6     15         8          350        165   3693         11.5    70
##  3 16.1     18         8          318        150   3436         11      70
##  4 16.1     16         8          304        150   3433         12      70
##  5 17.7     17         8          302        140   3449         10.5    70
##  6  8.31    15         8          429        198   4341         10      70
##  7  4.76    14         8          454        220   4354          9      70
##  8  5.57    14         8          440        215   4312          8.5    70
##  9  3.96    14         8          455        225   4425         10      70
## 10  9.60    15         8          390        190   3850          8.5    70
## # … with 382 more rows, and 2 more variables: origin <dbl>, name <fct>
…
## # A tibble: 1 × 3
##   .metric .estimator .estimate
##   <chr>   <chr>          <dbl>
## 1 rmse    standard        4.90

vs_fit_2      <- fit(lm_spec, 
                   mpg ~ poly(horsepower, 2), 
                   data = Auto_train)
mpg_pred_2 <- vs_fit_2 %>% 
  predict(new_data = Auto) %>% 
  bind_cols(Auto)
mpg_pred_2

## # A tibble: 392 × 10
##    .pred   mpg cylinders displacement horsepower weight acceleration  year
##  * <dbl> <dbl>     <dbl>        <dbl>      <dbl>  <dbl>        <dbl> <dbl>
##  1  16.9    18         8          307        130   3504         12      70
##  2  13.2    15         8          350        165   3693         11.5    70
##  3  14.4    18         8          318        150   3436         11      70
##  4  14.4    16         8          304        150   3433         12      70
##  5  15.5    17         8          302        140   3449         10.5    70
##  6  12.7    15         8          429        198   4341         10      70
##  7  13.9    14         8          454        220   4354          9      70
##  8  13.5    14         8          440        215   4312          8.5    70
##  9  14.4    14         8          455        225   4425         10      70
## 10  12.5    15         8          390        190   3850          8.5    70
## # … with 382 more rows, and 2 more variables: origin <dbl>, name <fct>
…
## # A tibble: 1 × 3
##   .metric .estimator .estimate
##   <chr>   <chr>          <dbl>
## 1 rmse    standard        4.36

vs_fit_3      <- fit(lm_spec, 
                   mpg ~ poly(horsepower, 3), 
                   data = Auto_train)
mpg_pred_3 <- vs_fit_3 %>% 
  predict(new_data = Auto) %>% 
  bind_cols(Auto)
mpg_pred_3

## # A tibble: 392 × 10
##    .pred   mpg cylinders displacement horsepower weight acceleration  year
##  * <dbl> <dbl>     <dbl>        <dbl>      <dbl>  <dbl>        <dbl> <dbl>
##  1  17.0    18         8          307        130   3504         12      70
##  2  13.9    15         8          350        165   3693         11.5    70
##  3  14.9    18         8          318        150   3436         11      70
##  4  14.9    16         8          304        150   3433         12      70
##  5  15.9    17         8          302        140   3449         10.5    70
##  6  12.6    15         8          429        198   4341         10      70
##  7  12.2    14         8          454        220   4354          9      70
##  8  12.3    14         8          440        215   4312          8.5    70
##  9  12.1    14         8          455        225   4425         10      70
## 10  12.8    15         8          390        190   3850          8.5    70
## # … with 382 more rows, and 2 more variables: origin <dbl>, name <fct>
…
